Gerrymandering Project Dashboard
…
# A tibble: 52 × 3
   district uspdem01 usprep01
   <chr>       <dbl>    <dbl>
 1 01        243745.  223427.
 2 02        317707.  302416.
 3 03        203879.  195560.
 4 04        205020.  163946.
 5 05        243996.  317274.
 6 06        175022.  154837.
 7 07        187744.  158232.
 8 08        218202.  123559.
 9 09        157030.  122739.
10 10        236048.  133233.
# ℹ 42 more rows

# A tibble: 51,123 × 76
   county fips  svprec  addist svprec_key election geo_type cddist sddist bedist
    <dbl> <chr> <chr>    <dbl> <chr>      <chr>    <chr>     <dbl>  <dbl>  <dbl>
 1      1 06001 200100      14 060012001… g24      svprec       12      7      2
 2      1 06001 200100A     14 060012001… g24      svprec       12      7      2
 3      1 06001 200200      14 060012002… g24      svprec       12      7      2
 4      1 06001 200200A     14 060012002… g24      svprec       12      7      2
 5      1 06001 201400      14 060012014… g24      svprec       12      7      2
 6      1 06001 201400A     14 060012014… g24      svprec       12      7      2
 7      1 06001 202200      14 060012022… g24      svprec       12      7      2
 8      1 06001 202200A     14 060012022… g24      svprec       12      7      2
 9      1 06001 202500      14 060012025… g24      svprec       12      7      2
10      1 06001 202500A     14 060012025… g24      svprec       12      7      2
# ℹ 51,113 more rows
# ℹ 66 more variables: totreg <dbl>, demreg <dbl>, repreg <dbl>, aipreg <dbl>,
#   grnreg <dbl>, libreg <dbl>, nlpreg <dbl>, refreg <dbl>, dclreg <dbl>,
#   mscreg <dbl>, totvote <dbl>, demvote <dbl>, repvote <dbl>, aipvote <dbl>,
#   grnvote <dbl>, libvote <dbl>, nlpvote <dbl>, refvote <dbl>, dclvote <dbl>,
#   mscvote <dbl>, prcvote <dbl>, absvote <dbl>, assaip01 <chr>,
#   assdem01 <chr>, assdem02 <chr>, assrep01 <chr>, assrep02 <chr>, …
…
